Chapter 3 Data transformation | COVID-19 Analysis
…
For all 3 vaccines, we only use the count of first dose as the count for the vaccine distribution. The reasons are:

All 1st dose vaccine takers will take the second dose in the future (except for very rare cases where a person have extreme side effects or other excuses for not taking the second dose).

Janssen vaccine is a single-dose vaccine, so in order to be consistent, we only compare the first dose of each vaccine.

In the original data, there are a few mismatch between the number of 1st dose and the second’s. But fortunately, none of these mismatch is from the main 50 U.S states, so we removed all the states with inconsistent numbers.

Moreover, as data on the official CDC website updates daily. We pick April 7 to be the end-date in order to maintain consistency. In another word, we are analyzing vaccine distribution from its start week (varies for different vaccine) to the week of 04/05/2021 for 3 different vaccines. Therefore, we exclude rows with Week_of_Allocations == 4/12/2021

As we are also interested in the cumulative allocations since the time when data has been collected, we add one more cumulative value column to the data set.

One Data Example - the Moderna vaccine allocations:

## # A tibble: 896 x 4
##    states               week_date  dose_allocations cum_dose_allocations
##    <chr>                <date>                <dbl>                <dbl>
##  1 Alabama              2020-12-21            84300                84300
##  2 Alaska               2020-12-21            26800                26800
##  3 Arizona              2020-12-21           119400               119400
##  4 Arkansas             2020-12-21            51100                51100
##  5 California           2020-12-21           672600               672600
##  6 Chicago              2020-12-21            46800                46800
##  7 Colorado             2020-12-21            95600                95600
##  8 Connecticut          2020-12-21            63300                63300
##  9 Delaware             2020-12-21            16700                16700
## 10 District of Columbia 2020-12-21            12600                12600
## # … with 886 more rows
…
